{
  "intents": [
    {
    	"intent": "FreeParkingIntent",
      "slots": [
        {
          "name": "FreeParkingSlot",
          "type": "Free_Parking"
        },
        {
          "name": "Where_Slot",
          "type": "Where"
        }
      ]
    },
    {
    	"intent": "DownloadConferenceNotesIntent",
      "slots": [
        {
          "name": "DownloadConferenceNotesSlot",
          "type": "Download_Conference_Notes"
        },
        {
          "name": "Where_Slot",
          "type": "Where"
        },
        {
          "name": "How_Slot",
          "type": "How"
        }
      ]
      
    },{
    	"intent": "BusPickupIntent",
    	"slots": [
        {
          "name": "When_Slot",
          "type": "When"
        },
        {
          "name": "Bus_Synonyms_Slot",
          "type": "Bus_Synonyms"
        },
        {
          "name": "Pickup_Slot",
          "type": "Pickup"
        },
        {
          "name": "Hands_On_Labs_Synonyms_Slot",
          "type": "Hands_On_Labs_Synonyms"
        }
      ]
    },{
		"intent" : "WhereIsConferenceIntent",
		"slots": [
        {
          "name": "Where_Slot",
          "type": "Where"
        },
        {
          "name": "WVC_Slot",
          "type": "WVC"
        }
      ]
	}, {
		"intent" : "WhyIsMyBadgeScannedIntent",
		"slots": [
        {
          "name": "Why_Slot",
          "type": "Why"
        },
        {
          "name": "Conference_Badge_Synonyms_Slot",
          "type": "Conference_Badge_Synonyms"
        }
      ]
	}, {
		"intent" : "WVCTVIntent",
      "slots": [
        {
          "name": "How_Slot",
          "type": "How"
        }
      ]
	}, {
		"intent" : "ConferenceNotesAvailabilityIntent",
      "slots": [
        {
          "name": "How_Slot",
          "type": "How"
        },
        {
          "name": "Conference_Notes_Synonyms_Slot",
          "type": "Conference_Notes_Synonyms"
        },
        {
          "name": "WVC_Slot",
          "type": "WVC"
        }
      ]
	}, {
		"intent" : "UploadConferenceNotesIntent",
      "slots": [
        {
          "name": "How_Slot",
          "type": "How"
        },
        {
          "name": "Conference_Notes_Synonyms_Slot",
          "type": "Conference_Notes_Synonyms"
        }
      ]
	}, {
		"intent" : "SessionsThatDoNotHaveNotesIntent",
      "slots": [
        {
          "name": "Session_Synonyms_Slot",
          "type": "Session_Synonyms"
        },
        {
          "name": "WVC_Slot",
          "type": "WVC"
        },
        {
          "name": "Conference_Notes_Synonyms_Slot",
          "type": "Conference_Notes_Synonyms"
        }
      ]
	}, {
		"intent" : "ConvinceMyBossIWillBenefitFromAttendingIntent",
      "slots": [
        {
          "name": "How_Slot",
          "type": "How"
        },
        {
          "name": "WVC_Slot",
          "type": "WVC"
        },
        {
          "name": "Boss_Synonyms_Slot",
          "type": "Boss_Synonyms"
        }
      ]
	}, {
		"intent" : "WhenWillExhibitHallOpenIntent",
      "slots": [
        {
          "name": "When_Slot",
          "type": "When"
        }
      ]
	}, {
		"intent" : "WhoCanAttendIntent",
      "slots": [
        {
          "name": "Attend_ParticipateIn_Join_Synonyms_Slot",
          "type": "Attend_ParticipateIn_Join_Synonyms"
        },
        {
          "name": "WVC_Slot",
          "type": "WVC"
        }
        ]
	}, {
		"intent" : "HowManyPeopleAttendIntent",
      "slots": [
        {
          "name": "WVC_Slot",
          "type": "WVC"
        },
        {
          "name": "Person_Type_Slot",
          "type": "Person_Type"
        }
        ]
	}, {
		"intent" : "HowManyCEHoursAreOfferedIntent",
      "slots": [
        {
          "name": "How_Slot",
          "type": "How"
        }
      ]
	}, {
		"intent" : "HowDoIRegisterForAnnualConferenceIntent",
      "slots": [
        {
          "name": "How_Slot",
          "type": "How"
        },
        {
          "name": "WVC_Slot",
          "type": "WVC"
        }
      ]
	}, {
		"intent" : "CancellationPolicyIntent"
	}, {
		"intent" : "CanIBringGuestsIntent",
      "slots": [
        {
          "name": "WVC_Slot",
          "type": "WVC"
        },
        {
          "name": "Guest_Synonyms_Slot",
          "type": "Guest_Synonyms"
        }
      ]
	}, {
		"intent" : "ChildPolicyIntent"
	}, {
		"intent" : "ProvideChildCareIntent",
        "slots": [
          {
            "name": "WVC_Slot",
            "type": "WVC"
          },
          {
            "name": "Providing_Synonyms_Slot",
            "type": "Providing_Synonyms"
          },
          {
            "name": "Child_Care_Synonyms_Slot",
            "type": "Child_Care_Synonyms"
          }
        ]
	}, {
		"intent" : "RegisterOtherPeopleIntent",
        "slots": [
          {
            "name": "How_Slot",
            "type": "How"
          },
          {
            "name": "Person_Type_Slot",
            "type": "Person_Type"
          },
          {
            "name": "Office_Type_Slot",
            "type": "Office_Type"
          }
        ]
	}, {
		"intent" : "WhatIsWaitListIntent"
	}, {
		"intent" : "WhatSessionsCanIAttendIntent",
      "slots": [
        {
          "name": "Session_Synonyms_Slot",
          "type": "Session_Synonyms"
        },
        {
          "name": "Attend_ParticipateIn_Join_Synonyms_Slot",
          "type": "Attend_ParticipateIn_Join_Synonyms"
        }
      ]
	}, {
		"intent" : "DoISignUpForEachSessionIWantToAttendIntent",
      "slots": [
        {
          "name": "WVC_Slot",
          "type": "WVC"
        },
        {
          "name": "Session_Synonyms_Slot",
          "type": "Session_Synonyms"
        },
        {
          "name": "Attend_ParticipateIn_Join_Synonyms_Slot",
          "type": "Attend_ParticipateIn_Join_Synonyms"
        }
      ]
	}, {
		"intent" : "IsLunchIncludedIntent",
      "slots": [
        {
          "name": "WVC_Slot",
          "type": "WVC"
        }
      ]
	}, {
		"intent" : "AreConferenceNotesIncludedIntent",
      "slots": [
        {
          "name": "WVC_Slot",
          "type": "WVC"
        },
        {
          "name": "Conference_Notes_Synonyms_Slot",
          "type": "Conference_Notes_Synonyms"
        },
        {
          "name": "Providing_Synonyms_Slot",
          "type": "Providing_Synonyms"
        },
        {
          "name": "Fee_Synonyms_Slot",
          "type": "Fee_Synonyms"
        }
      ]
	}, {
		"intent" : "HowDoIUseMyScheduleIntent"
	}, {
		"intent" : "DownloadWVCMobileAppIntent",
      "slots": [
        {
          "name": "How_Slot",
          "type": "How"
        }
      ]
	}, {
		"intent" : "FreeWifiInConventionCenterIntent",
      "slots": [
        {
          "name": "Wifi_Synonyms_Slot",
          "type": "Wifi_Synonyms"
        },
        {
          "name": "Mandalay_Bay_Slot",
          "type": "Mandalay_Bay"
        }
      ]
	}, {
		"intent" : "BadgePickupIntent",
      "slots": [
        {
          "name": "Where_Slot",
          "type": "Where"
        },
        {
          "name": "WVC_Slot",
          "type": "WVC"
        },
        {
          "name": "Conference_Badge_Synonyms_Slot",
          "type": "Conference_Badge_Synonyms"
        },
        {
          "name": "Get_Grab_Synonyms_Slot",
          "type": "Get_Grab_Synonyms"
        }
      ]
	}, {
		"intent" : "HowDoIReceiveCECertificateIntent",
      "slots": [
        {
          "name": "How_Slot",
          "type": "How"
        },
        {
          "name": "Where_Slot",
          "type": "Where"
        }
      ]
	}, {
		"intent" : "ReserveHotelRoomIntent",
      "slots": [
        {
          "name": "How_Slot",
          "type": "How"
        },
        {
          "name": "Mandalay_Bay_Slot",
          "type": "Mandalay_Bay"
        }
      ]
	}, {
		"intent" : "BringMyRVIntent",
      "slots": [
        {
          "name": "WVC_Slot",
          "type": "WVC"
        },
        {
          "name": "RV_Synonyms_Slot",
          "type": "RV_Synonyms"
        }
      ]
	}, {
		"intent" : "ProvidedTransportationToTheAirportIntent",
      "slots": [
        {
          "name": "WVC_Slot",
          "type": "WVC"
        },{
          "name": "Providing_Synonyms_Slot",
          "type": "Providing_Synonyms"
        },{
          "name": "Bus_Synonyms_Slot",
          "type": "Bus_Synonyms"
        },{
          "name": "Las_Vegas_Airport_Synonyms_Slot",
          "type": "Las_Vegas_Airport_Synonyms"
        }
      ]
	}, {
		"intent" : "TransportationToFromContractedHotelsIntent",
      "slots": [
        {
          "name": "WVC_Slot",
          "type": "WVC"
        },{
          "name": "Providing_Synonyms_Slot",
          "type": "Providing_Synonyms"
        },{
          "name": "Bus_Synonyms_Slot",
          "type": "Bus_Synonyms"
        },{
          "name": "Get_Catch_Grab_Synonyms_Slot",
          "type": "Get_Catch_Grab_Synonyms"
        }
      ]
	}, {
		"intent" : "CheckBagsDuringConferenceIntent",
      "slots": [
        {
          "name": "WVC_Slot",
          "type": "WVC"
        },
        {
          "name": "Store_Stash_Keep_Synonyms_Slot",
          "type": "Store_Stash_Keep_Synonyms"
        },
        {
          "name": "Luggage_Synonyms_Slot",
          "type": "Luggage_Synonyms"
        },
        {
          "name": "Attending_Conference_Slot",
          "type": "Attending_Conference"
        },
        {
          "name": "Where_Slot",
          "type": "Where"
        }
      ]
	}, {
		"intent" : "WhatShouldIWearIntent"
	}, {
		"intent" : "MothersRoomIntent"
	},{
		"intent" : "VegasWeatherIntent",
      "slots": [
        {
          "name": "WVC_Slot",
          "type": "WVC"
        }
      ]
	}, {
		"intent" : "ParticipantsWithDisabilitiesIntent",
      "slots": [
        {
          "name": "How_Slot",
          "type": "How"
        }
      ]
	}, {
		"intent" : "LostItemsAtConferenceIntent",
      "slots": [
        {
          "name": "WVC_Slot",
          "type": "WVC"
        }
      ]
	}, {
		"intent" : "BrowseAnnualConferenceScientificProgramIntent",
      "slots": [
        {
          "name": "WVC_Slot",
          "type": "WVC"
        },
        {
          "name": "How_Slot",
          "type": "How"
        }
        ]
	}, {
		"intent" : "DatesForNextConferenceIntent",
      "slots": [
        {
          "name": "WVC_Slot",
          "type": "WVC"
        },
        {
          "name": "When_Slot",
          "type": "When"
        }
      ]
	}, {
    "intent" : "WhatCanISayIntent"
  },{
    "intent" : "NoIntent"
  },{
    "intent" : "YesIntent"
  },{
    "intent" : "ForgotPasswordIntent"
  }
  ]
}